IS415-GAA - Take-home Exercise 1: Geospatial Analytics for Social Good: Application of Spatial and Spatio-temporal Point Patterns Analysis to discover the geographical distribution of Armed Conflict i
…
grouped_data <- acled_sf %>%
  filter(event_date >= as.Date("2021-01-01") & event_date <= as.Date("2024-06-30")
         & event_type %in% event_types_of_interest) %>%
  group_by(event_type, year, quarter) %>%
  summarize(event_count = n())

print(grouped_data)

Simple feature collection with 56 features and 4 fields
Geometry type: MULTIPOINT
Dimension:     XY
Bounding box:  xmin: -208804.4 ymin: 1103500 xmax: 640934.5 ymax: 3042960
Projected CRS: WGS 84 / UTM zone 47N
# A tibble: 56 × 5
# Groups:   event_type, year [16]
   event_type  year quarter event_count                                 geometry
   <fct>      <dbl>   <int>       <int>                         <MULTIPOINT [m]>
 1 Battles     2021       1         148 ((-203795.3 2372607), (-10581.74 255763…
 2 Battles     2021       2         646 ((-191409.1 2317222), (-72946.86 252090…
 3 Battles     2021       3         593 ((-173272.7 2322073), (-92733.64 254436…
 4 Battles     2021       4         847 ((-200024.3 2345207), (-195636.2 235992…
 5 Battles     2022       1         987 ((-204784 2358873), (-195914.6 2357792)…
 6 Battles     2022       2        1019 ((-141557.3 2368713), (-138595 2239402)…
 7 Battles     2022       3         983 ((-204784 2358873), (-201788.2 2366580)…
 8 Battles     2022       4         839 ((-202593.1 2350220), (-201925.4 235410…
 9 Battles     2023       1         856 ((-191409.1 2317222), (-138595 2239402)…
10 Battles     2023       2         814 ((-174035.7 2284958), (-152179.1 227725…
# ℹ 46 more rows
…
